{
  "apps":
    [
      {
        "title": "WriteFreely",
        "source": "https://github.com/writefreely/writefreely",
        "protocols": "ActivityPub",
        "site": "https://writefreely.org",
        "logo": "/img/misc/writefreely.svg",
        "servers": "https://the-federation.info/writefreely",
        "description": "Minimalist blog software providing focused writing and publishing experience. Easy on resources.",
        "codeLanguage": "Go",
        "techStack": "Node.js, LESS",
        "license": "AGPL-3.0",
        "FediAccount": "@writefreely@writing.exchange",
        "apClass": true,
        "zotClass": false,
        "diasporaClass": false,
        "OStatusClass": false,
        "categories": ["Blog-Pub"]
      },
      {
        "title": "Mobilizon",
        "source": "https://framagit.org/framasoft/mobilizon",
        "protocols": "ActivityPub",
        "site": "https://joinmobilizon.org/en",
        "logo": "/img/misc/mobilizon.svg",
        "servers": "https://the-federation.info/mobilizon",
        "description": "A network to gather, organize, and mobilize.",
        "codeLanguage": "Elixir",
        "techStack": "Vue, TypeScript",
        "license": "AGPL-3.0",
        "FediAccount": "@mobilizon@framapiaf.org",
        "apClass": true,
        "zotClass": false,
        "diasporaClass": false,
        "OStatusClass": false,
        "categories": ["Ev-Meet"]
      },
      {
        "title": "Plume",
        "source": "https://github.com/Plume-org/Plume",
        "protocols": "ActivityPub",
        "site": "https://joinplu.me",
        "logo": "/img/misc/plume.svg",
        "servers": "https://the-federation.info/plume",
        "description": "Blogging application suitable for collaborative writing.",
        "codeLanguage": "Rust",
        "techStack": "Rocket, Diesel, Ructe templates, WASM, SCSS",
        "license": "AGPL-3.0",
        "FediAccount": "@PlumeDev@fediverse.blog",
        "apClass": true,
        "zotClass": false,
        "diasporaClass": false,
        "OStatusClass": false,
        "categories": ["Blog-Pub"]
      },
      {
        "title": "Lemmy",
        "source": "https://codeberg.org/LemmyNet/lemmy",
        "protocols": "ActivityPub",
        "site": "https://join-lemmy.org",
        "logo": "/img/misc/lemmy.svg",
        "servers": "https://the-federation.info/lemmy",
        "description": "Link aggregator, a federated alternative to Reddit / Lobste.rs / Raddle / Hacker News.",
        "codeLanguage": "Rust",
        "techStack": "Actix, Diesel, Inferno, TypeScript",
        "license": "AGPL-3.0",
        "FediAccount": "@LemmyDev@mastodon.social",
        "apClass": true,
        "zotClass": false,
        "diasporaClass": false,
        "OStatusClass": false,
        "categories": ["Links"]
      },
      {
        "title": "microblog.pub",
        "source": "https://git.sr.ht/~tsileo/microblog.pub",
        "protocols": "ActivityPub",
        "site": "",
        "logo": "",
        "servers": "https://the-federation.info/microblogpub",
        "description": "Self-hosted, single-user, ActivityPub powered microblog.",
        "codeLanguage": "Python",
        "techStack": "Flask, Tornado, SASS",
        "license": "AGPL-3.0",
        "FediAccount": "",
        "apClass": true,
        "zotClass": false,
        "diasporaClass": false,
        "OStatusClass": false,
        "categories": ["SN-mi"]
      },
      {
        "title": "Epicyon",
        "source": "https://gitlab.com/bashrc2/epicyon",
        "protocols": "ActivityPub",
        "site": "https://libreserver.org/epicyon",
        "logo": "/img/misc/epicyon.png",
        "servers": "https://the-federation.info/epicyon",
        "description": "ActivityPub server implementing S2S and C2S protocols, suitable for single board computers. Provides moderation tools, post expiry, content warnings, and image descriptions.",
        "codeLanguage": "Python",
        "techStack": "",
        "license": "AGPL-3.0",
        "FediAccount": "",
        "apClass": true,
        "zotClass": false,
        "diasporaClass": false,
        "OStatusClass": false,
        "categories": ["SN-mi"]
      },
      {
        "title": "Lotide",
        "source": "https://sr.ht/~vpzom/lotide",
        "protocols": "ActivityPub",
        "site": "",
        "logo": "",
        "servers": "https://the-federation.info/lotide",
        "description": "A federated forum / link aggregator.",
        "codeLanguage": "Rust",
        "techStack": "",
        "license": "AGPL-3.0",
        "FediAccount": "",
        "apClass": true,
        "zotClass": false,
        "diasporaClass": false,
        "OStatusClass": false,
        "categories": ["Links"]
      },
      {
        "title": "Socialhome",
        "source": "https://gitlab.com/jaywink/socialhome",
        "protocols": "diaspora, ActivityPub",
        "site": "https://socialhome.network",
        "logo": "/img/misc/socialhome.svg",
        "servers": "https://the-federation.info/socialhome",
        "description": "Personal webpage with social networking functionality. Column grid layout makes it a perfect network for sharing image content or creating personal portfolio.",
        "codeLanguage": "Python",
        "techStack": "Django, Vue",
        "license": "AGPL-3.0",
        "FediAccount": "@jaywink@jasonrobinson.me",
        "apClass": true,
        "zotClass": false,
        "diasporaClass": true,
        "OStatusClass": false,
        "categories": ["SN-ma"]
      },
      {
        "title": "Bookwyrm",
        "source": "https://github.com/mouse-reeve/bookwyrm",
        "protocols": "ActivityPub",
        "site": "https://joinbookwyrm.com",
        "logo": "/img/misc/bookwyrm.png",
        "servers": "https://the-federation.info/bookwyrm",
        "description": "Social reading and reviewing, a federated alternative to GoodReads.",
        "codeLanguage": "Python",
        "techStack": "Django",
        "license": "Anti-capitalist-1.4",
        "FediAccount": "@bookwyrm@tech.lgbt",
        "apClass": true,
        "zotClass": false,
        "diasporaClass": false,
        "OStatusClass": false,
        "categories": ["Reviews"]
      },
      {
        "title": "Zap",
        "source": "https://codeberg.org/zot/zap",
        "protocols": "Zot, ActivityPub",
        "site": "",
        "logo": "/img/misc/zap.png",
        "servers": "https://the-federation.info/zap",
        "description": "Facebook-like Fediverse server with more privacy and less drama.",
        "codeLanguage": "PHP",
        "techStack": "",
        "license": "Unlicense (public domain)",
        "FediAccount": "@mike@macgirvin.com",
        "apClass": true,
        "zotClass": true,
        "diasporaClass": false,
        "OStatusClass": false,
        "categories": ["SN-ma", "Files"]
      },
      {
        "title": "Gancio",
        "source": "https://framagit.org/les/gancio",
        "protocols": "ActivityPub",
        "site": "https://gancio.org",
        "logo": "/img/misc/gancio.png",
        "servers": "https://the-federation.info/gancio",
        "description": "A shared agenda for local communities. Decentralized events.",
        "codeLanguage": "JavaScript",
        "techStack": "Vue, Node.js",
        "license": "AGPL-3.0",
        "FediAccount": "",
        "apClass": true,
        "zotClass": false,
        "diasporaClass": false,
        "OStatusClass": false,
        "categories": ["Ev-Meet"]
      },
      {
        "title": "Honk",
        "source": "https://humungus.tedunangst.com/r/honk/f",
        "protocols": "ActivityPub",
        "site": "https://humungus.tedunangst.com/r/honk/f",
        "logo": "",
        "servers": "",
        "description": "ActivityPub server with minimal setup and support costs.",
        "codeLanguage": "Go",
        "techStack": "",
        "license": "ISC",
        "FediAccount": "@tedu@honk.tedunangst.com",
        "apClass": true,
        "zotClass": false,
        "diasporaClass": false,
        "OStatusClass": false,
        "categories": ["SN-mi"]
      },
      {
        "title": "Reel2Bits",
        "source": "https://github.com/rhaamo/reel2bits",
        "protocols": "ActivityPub",
        "site": "https://reel2bits.org",
        "logo": "",
        "servers": "https://the-federation.info/reel2bits",
        "description": "Self-hosted soundtracks and podcasts sharing.",
        "codeLanguage": "Python",
        "techStack": "Flask, Vue, Bootstrap",
        "license": "AGPL-3.0",
        "FediAccount": "",
        "apClass": true,
        "zotClass": false,
        "diasporaClass": false,
        "OStatusClass": false,
        "categories": ["Media"]
      },
      {
        "title": "brutalinks",
        "source": "https://github.com/mariusor/go-littr",
        "protocols": "ActivityPub",
        "site": "",
        "logo": "",
        "servers": "https://the-federation.info/brutalinks",
        "description": "Link aggregator inspired by Reddit.",
        "codeLanguage": "Go",
        "techStack": "",
        "license": "MIT",
        "FediAccount": "@mariusor@metalhead.club",
        "apClass": true,
        "zotClass": false,
        "diasporaClass": false,
        "OStatusClass": false,
        "categories": ["Links"]
      },
      {
        "title": "Smithereen",
        "source": "https://github.com/grishka/Smithereen",
        "protocols": "ActivityPub",
        "site": "",
        "logo": "",
        "servers": "https://the-federation.info/smithereen",
        "description": "Federated, ActivityPub-compatible social network with friends, walls, and groups.",
        "codeLanguage": "Java",
        "techStack": "",
        "license": "Unlicense (public domain)",
        "FediAccount": "@grishka@mastodon.social",
        "apClass": true,
        "zotClass": false,
        "diasporaClass": false,
        "OStatusClass": false,
        "categories": ["SN-ma", "Ev-Meet"]
      },
      {
        "title": "Glitch-soc",
        "source": "https://github.com/glitch-soc/mastodon",
        "protocols": "ActivityPub",
        "site": "https://glitch-soc.github.io/docs",
        "logo": "",
        "servers": "",
        "description": "A friendly fork of Mastodon, with the aim of providing additional features at the risk of potentially less stable software.",
        "codeLanguage": "Ruby",
        "techStack": "React, SASS, Node.js",
        "license": "AGPL-3.0",
        "FediAccount": "",
        "apClass": true,
        "zotClass": false,
        "diasporaClass": false,
        "OStatusClass": false,
        "categories": ["SN-mi"]
      },
      {
        "title": "Hometown",
        "source": "https://github.com/hometown-fork/hometown",
        "protocols": "ActivityPub",
        "site": "",
        "logo": "",
        "servers": "",
        "description": "A fork of Mastodon that provides local posting and a wider range of content types.",
        "codeLanguage": "Ruby",
        "techStack": "React, SASS, Node.js",
        "license": "AGPL-3.0",
        "FediAccount": "@darius@friend.camp",
        "apClass": true,
        "zotClass": false,
        "diasporaClass": false,
        "OStatusClass": false,
        "categories": ["SN-mi"]
      },
      {
        "title": "Ecko",
        "source": "https://github.com/magicstone-dev/ecko",
        "protocols": "ActivityPub",
        "site": "",
        "logo": "",
        "servers": "",
        "description": "A fork of Mastodon to optimize toward community, that is making it as easy as possible to contribute.",
        "codeLanguage": "Ruby",
        "techStack": "React, SASS, Node.js",
        "license": "AGPL-3.0",
        "FediAccount": "@weex@c4.social",
        "apClass": true,
        "zotClass": false,
        "diasporaClass": false,
        "OStatusClass": false,
        "categories": ["SN-mi"]
      },
      {
        "title": "Acropolis",
        "source": "https://github.com/magicstone-dev/acropolis",
        "protocols": "diaspora",
        "site": "",
        "logo": "",
        "servers": "https://the-federation.info/acropolis",
        "description": "A fork of diaspora to optimize toward community, that is making it as easy as possible to contribute.",
        "codeLanguage": "Ruby",
        "techStack": "",
        "license": "AGPL-3.0",
        "FediAccount": "@weex@c4.social",
        "apClass": false,
        "zotClass": false,
        "diasporaClass": true,
        "OStatusClass": false,
        "categories": ["SN-ma"]
      },
      {
        "title": "Owncast",
        "source": "https://github.com/owncast/owncast",
        "protocols": "ActivityPub",
        "site": "https://owncast.online",
        "logo": "/img/misc/owncast.svg",
        "servers": "https://the-federation.info/owncast",
        "description": "Owncast is a self-hosted live video and web chat server for use with existing popular broadcasting software.",
        "codeLanguage": "Go",
        "techStack": "",
        "license": "MIT",
        "FediAccount": "@gabek@mastodon.social",
        "apClass": true,
        "zotClass": false,
        "diasporaClass": false,
        "OStatusClass": false,
        "categories": ["Media"]
      },
      {
        "title": "Ktistec",
        "source": "https://github.com/toddsundsted/ktistec",
        "protocols": "ActivityPub",
        "site": "",
        "logo": "/img/misc/ktistec.png",
        "servers": "https://the-federation.info/ktistec",
        "description": "An ActivityPub server with minimal dependencies, optimized for single-user application.",
        "codeLanguage": "Crystal",
        "techStack": "",
        "license": "-",
        "FediAccount": "@toddsundsted@mastodon.social",
        "apClass": true,
        "zotClass": false,
        "diasporaClass": false,
        "OStatusClass": false,
        "categories": ["SN-mi"]
      },
      {
        "title": "OLKi",
        "source": "",
        "protocols": "ActivityPub",
        "site": "https://olki.loria.fr/platform",
        "logo": "",
        "servers": "",
        "description": "A self-hosted linguistic corpora exchange platform that aims to be a simple gateway to the Fediverse for scientific interaction.",
        "codeLanguage": "Python",
        "techStack": "Django, Vue, Nuxt, Spectre.css, Zutre",
        "license": "AGPL-3.0",
        "FediAccount": "",
        "apClass": true,
        "zotClass": false,
        "diasporaClass": false,
        "OStatusClass": false,
        "categories": ["OpenData", "SN-mi"]
      },
      {
        "title": "pubgate",
        "source": "https://github.com/autogestion/pubgate",
        "protocols": "ActivityPub",
        "site": "",
        "logo": "",
        "servers": "https://the-federation.info/pubgate",
        "description": "Lightweight ActivityPub CMS. Implements both client-to-server (C2S) and server-to-server(S2S) APIs. Compatible with Mastodon, Pixelfed, Pleroma and microblog.pub.",
        "codeLanguage": "Python",
        "techStack": "",
        "license": "BSD-3-clause",
        "FediAccount": "",
        "apClass": true,
        "zotClass": false,
        "diasporaClass": false,
        "OStatusClass": false,
        "categories": ["SN-mi"]
      },
      {
        "title": "Mistpark",
        "source": "https://codeberg.org/zot/misty",
        "protocols": "Zot, ActivityPub",
        "site": "",
        "logo": "/img/misc/misty.png",
        "servers": "https://the-federation.info/mistpark",
        "description": "Fediverse server with nomadic identity, groups, events, conversational views.",
        "codeLanguage": "PHP",
        "techStack": "",
        "license": "Unlicense (public domain)",
        "FediAccount": "@mike@macgirvin.com",
        "apClass": true,
        "zotClass": true,
        "diasporaClass": false,
        "OStatusClass": false,
        "categories": ["SN-ma", "Files"]
      },
      {
        "title": "Osada",
        "source": "https://codeberg.org/zot/osada",
        "protocols": "Zot, ActivityPub",
        "site": "",
        "logo": "/img/misc/osada.png",
        "servers": "https://the-federation.info/osada",
        "description": "Fediverse server.",
        "codeLanguage": "PHP",
        "techStack": "",
        "license": "Unlicense (public domain)",
        "FediAccount": "@mike@macgirvin.com",
        "apClass": true,
        "zotClass": true,
        "diasporaClass": false,
        "OStatusClass": false,
        "categories": ["SN-ma", "Files"]
      },
      {
        "title": "Redmatrix",
        "source": "https://codeberg.org/zot/redmatrix",
        "protocols": "Zot",
        "site": "",
        "logo": "/img/misc/redmatrix.png",
        "servers": "https://the-federation.info/redmatrix",
        "description": "Zot6 server.",
        "codeLanguage": "PHP",
        "techStack": "",
        "license": "Unlicense (public domain)",
        "FediAccount": "@mike@macgirvin.com",
        "apClass": false,
        "zotClass": true,
        "diasporaClass": false,
        "OStatusClass": false,
        "categories": ["SN-ma", "Files"]
      },
      {
        "title": "Roadhouse",
        "source": "https://codeberg.org/zot/roadhouse",
        "protocols": "Zot, ActivityPub",
        "site": "",
        "logo": "/img/misc/roadhouse.png",
        "servers": "https://the-federation.info/roadhouse",
        "description": "Next gen Fediverse server.",
        "codeLanguage": "PHP",
        "techStack": "",
        "license": "Unlicense (public domain)",
        "FediAccount": "@mike@macgirvin.com",
        "apClass": true,
        "zotClass": true,
        "diasporaClass": false,
        "OStatusClass": false,
        "categories": ["SN-ma", "Files"]
      },
      {
        "title": "castling.club",
        "source": "https://github.com/stephank/castling.club",
        "protocols": "ActivityPub",
        "site": "https://castling.club",
        "logo": "",
        "servers": "https://fedidb.org/software/castling.club",
        "description": "Challenge someone to a game of chess using toots! An ActivityPub server with a single hardcoded King service actor that acts as a chess arbiter.",
        "codeLanguage": "TypeScript",
        "techStack": "Node.js",
        "license": "MIT",
        "FediAccount": "@kosinus@mastodon.social",
        "apClass": true,
        "zotClass": false,
        "diasporaClass": false,
        "OStatusClass": false,
        "categories": ["Games"]
      },
      {
        "title": "Guppe",
        "source": "https://github.com/wmurphyrd/guppe",
        "protocols": "ActivityPub",
        "site": "https://a.gup.pe",
        "logo": "/img/misc/guppe.png",
        "servers": "",
        "description": "Social groups for Mastodon and other ActivityPub networks.",
        "codeLanguage": "JavaScript",
        "techStack": "Node.js, Express, Vue",
        "license": "AGPL-3.0",
        "FediAccount": "",
        "apClass": true,
        "zotClass": false,
        "diasporaClass": false,
        "OStatusClass": false,
        "categories": ["Extention"]
      },
      {
        "title": "Group Actor",
        "source": "https://git.ondrovo.com/MightyPork/group-actor",
        "protocols": "ActivityPub",
        "site": "",
        "logo": "",
        "servers": "https://piggo.space/hob",
        "description": "Groups work with any software that implements Mastodon client API. Has moderation, admin announcements.",
        "codeLanguage": "Rust",
        "techStack": "",
        "license": "MIT",
        "FediAccount": "@piggo@piggo.space",
        "apClass": true,
        "zotClass": false,
        "diasporaClass": false,
        "OStatusClass": false,
        "categories": ["Extention"]
      },
      {
        "title": "Nextcloud-Social",
        "source": "https://github.com/nextcloud/social",
        "protocols": "ActivityPub",
        "site": "https://apps.nextcloud.com/apps/social",
        "logo": "/img/misc/nextcloud.png",
        "servers": "",
        "description": "Social networking app for NextCloud users.",
        "codeLanguage": "PHP",
        "techStack": "Node.js, Vue, SCSS",
        "license": "AGPL-3.0",
        "FediAccount": "",
        "apClass": true,
        "zotClass": false,
        "diasporaClass": false,
        "OStatusClass": false,
        "categories": ["Files", "SN-mi"]
      },
      {
        "title": "Read.as",
        "source": "https://github.com/writeas/Read.as",
        "protocols": "ActivityPub",
        "site": "https://read.as",
        "logo": "/img/misc/readas.svg",
        "servers": "https://the-federation.info/read.as",
        "description": "Long-form reader. It helps you gather and curate things to read in a peaceful space.",
        "codeLanguage": "Go",
        "techStack": "Node.js",
        "license": "AGPL-3.0",
        "FediAccount": "",
        "apClass": true,
        "zotClass": false,
        "diasporaClass": false,
        "OStatusClass": false,
        "categories": ["Blog-Pub"]
      },
      {
        "title": "dokieli",
        "source": "https://github.com/linkeddata/dokieli",
        "protocols": "ActivityPub",
        "site": "https://dokie.li",
        "logo": "/img/misc/dokieli.png",
        "servers": "",
        "description": "In-browser article authoring and formatting, RDFa annotations, and social interactions tool.",
        "codeLanguage": "JavaScript",
        "techStack": "Node.js",
        "license": "Apache-2.0",
        "FediAccount": "",
        "apClass": true,
        "zotClass": false,
        "diasporaClass": false,
        "OStatusClass": false,
        "categories": ["Blog-Pub"]
      },
      {
        "title": "GoBlog",
        "source": "https://git.jlel.se/jlelse/GoBlog",
        "protocols": "ActivityPub",
        "site": "https://goblog.app",
        "logo": "",
        "servers": "",
        "description": "Simple blogging system written in Go.",
        "codeLanguage": "Go",
        "techStack": "",
        "license": "MIT",
        "FediAccount": "@jle@fosstodon.org",
        "apClass": true,
        "zotClass": false,
        "diasporaClass": false,
        "OStatusClass": false,
        "categories": ["Blog-Pub"]
      },
      {
        "title": "groundpolis",
        "source": "https://github.com/Groundpolis/Groundpolis",
        "protocols": "ActivityPub",
        "site": "",
        "logo": "",
        "servers": "https://the-federation.info/groundpolis",
        "description": "A microblogging service forked from Misskey.",
        "codeLanguage": "TypeScript",
        "techStack": "Vue, Node.js",
        "license": "AGPL-3.0",
        "FediAccount": "",
        "apClass": true,
        "zotClass": false,
        "diasporaClass": false,
        "OStatusClass": false,
        "categories": ["SN-mi"]
      },
      {
        "title": "Kanzaki",
        "source": "https://github.com/KnzkDev/kanzaki",
        "protocols": "ActivityPub",
        "site": "",
        "logo": "",
        "servers": "",
        "description": "A Mastodon-compatible, ActivityPub-speaking server in OCaml.",
        "codeLanguage": "OCaml",
        "techStack": "",
        "license": "AGPL-3.0",
        "FediAccount": "",
        "apClass": true,
        "zotClass": false,
        "diasporaClass": false,
        "OStatusClass": false,
        "categories": ["SN-mi"]
      },
      {
        "title": "Anfora",
        "source": "https://github.com/anforaProject/anfora",
        "protocols": "ActivityPub",
        "site": "",
        "logo": "/img/misc/anfora.svg",
        "servers": "https://the-federation.info/anfora",
        "description": "Self-hosted photo gallery social network.",
        "codeLanguage": "Python",
        "techStack": "Tornado, peewee",
        "license": "AGPL-3.0",
        "FediAccount": "@anfora@mastodon.social",
        "apClass": true,
        "zotClass": false,
        "diasporaClass": false,
        "OStatusClass": false,
        "categories": ["Media"]
      },
      {
        "title": "Gath",
        "source": "https://github.com/lowercasename/gathio",
        "protocols": "ActivityPub",
        "site": "",
        "logo": "",
        "servers": "",
        "description": "Self-destructing, shareable, no-registration event pages.",
        "codeLanguage": "JavaScript",
        "techStack": "",
        "license": "GPL-3.0",
        "FediAccount": "",
        "apClass": true,
        "zotClass": false,
        "diasporaClass": false,
        "OStatusClass": false,
        "categories": ["Ev-Meet"]
      },
      {
        "title": "The Occasion Octopus",
        "source": "https://github.com/theoccasionoctopus/theoccasionoctopus-server",
        "protocols": "ActivityPub",
        "site": "https://www.theoccasionoctopus.net",
        "logo": "",
        "servers": "",
        "description": "A federated network of Open Data for discovering interesting events.",
        "codeLanguage": "PHP",
        "techStack": "",
        "license": "AGPL-3.0",
        "FediAccount": "@theoccasionoctopus@fosstodon.org",
        "apClass": true,
        "zotClass": false,
        "diasporaClass": false,
        "OStatusClass": false,
        "categories": ["Ev-Meet"]
      },
      {
        "title": "Rustodon",
        "source": "https://github.com/rustodon/rustodon",
        "protocols": "ActivityPub",
        "site": "",
        "logo": "",
        "servers": "",
        "description": "Mastodon-compatible social microblogging server.",
        "codeLanguage": "Rust",
        "techStack": "Diesel, SASS",
        "license": "AGPL-3.0",
        "FediAccount": "",
        "apClass": true,
        "zotClass": false,
        "diasporaClass": false,
        "OStatusClass": false,
        "categories": ["SN-mi"]
      },
      {
        "title": "Kroeg",
        "source": "https://git.puckipedia.com/kroeg",
        "protocols": "ActivityPub",
        "site": "https://puckipedia.com/kroeg",
        "logo": "",
        "servers": "",
        "description": "Generic ActivityPub server, with a focus on microblogging style activities.",
        "codeLanguage": "Rust",
        "techStack": "",
        "license": "-",
        "FediAccount": "",
        "apClass": true,
        "zotClass": false,
        "diasporaClass": false,
        "OStatusClass": false,
        "categories": ["SN-mi"]
      },
      {
        "title": "Aardwolf",
        "source": "https://github.com/Aardwolf-Social/aardwolf",
        "protocols": "ActivityPub",
        "site": "",
        "logo": "/img/misc/aardwolf.png",
        "servers": "",
        "description": "Facebook-like social network connecting communities across the web.",
        "codeLanguage": "Rust",
        "techStack": "Rocket, Bulma CSS",
        "license": "AGPL-3.0",
        "FediAccount": "",
        "apClass": true,
        "zotClass": false,
        "diasporaClass": false,
        "OStatusClass": false,
        "categories": ["SN-ma"]
      },
      {
        "title": "MoonTree",
        "source": "https://github.com/Faleidel/moontreeproject",
        "protocols": "ActivityPub",
        "site": "",
        "logo": "",
        "servers": "",
        "description": "Link aggregator like Reddit / Hackernews, but open source and self-hosted.",
        "codeLanguage": "TypeScript",
        "techStack": "Node.js",
        "license": "MIT",
        "FediAccount": "",
        "apClass": true,
        "zotClass": false,
        "diasporaClass": false,
        "OStatusClass": false,
        "categories": ["Links"]
      },
      {
        "title": "Smilodon",
        "source": "https://source.puri.sm/liberty/smilodon",
        "protocols": "ActivityPub",
        "site": "",
        "logo": "",
        "servers": "",
        "description": "A complementary fork of Mastodon, focusing on opt-in public spaces.",
        "codeLanguage": "Ruby",
        "techStack": "React, SASS, Node.js",
        "license": "AGPL-3.0",
        "FediAccount": "",
        "apClass": true,
        "zotClass": false,
        "diasporaClass": false,
        "OStatusClass": false,
        "categories": ["SN-mi"]
      },
      {
        "title": "microstatus",
        "source": "https://github.com/Arkanosis/microstatus",
        "protocols": "ActivityPub, OStatus",
        "site": "",
        "logo": "",
        "servers": "",
        "description": "Lightweight Mastodon and GNU social-compatible server implementation.",
        "codeLanguage": "Rust",
        "techStack": "",
        "license": "ISC",
        "FediAccount": "",
        "apClass": true,
        "zotClass": false,
        "diasporaClass": false,
        "OStatusClass": true,
        "categories": ["SN-mi"]
      },
      {
        "title": "Tavern",
        "source": "https://gitlab.com/ngerakines/tavern",
        "protocols": "ActivityPub",
        "site": "",
        "logo": "",
        "servers": "https://the-federation.info/tavern",
        "description": "A minimalistic Activity Pub server. Think Mastodon, but smaller and with fewer features.",
        "codeLanguage": "Go",
        "techStack": "",
        "license": "MIT",
        "FediAccount": "@ngerakines@mastodon.social",
        "apClass": true,
        "zotClass": false,
        "diasporaClass": false,
        "OStatusClass": true,
        "categories": ["SN-mi"]
      },
      {
        "title": "MatticNote",
        "source": "https://github.com/MatticNote/MatticNote",
        "protocols": "ActivityPub",
        "site": "",
        "logo": "",
        "servers": "",
        "description": "ActivityPub compatible SNS that aims to be easy for everyone to use.",
        "codeLanguage": "Go",
        "techStack": "",
        "license": "AGPL-3.0",
        "FediAccount": "",
        "apClass": true,
        "zotClass": false,
        "diasporaClass": false,
        "OStatusClass": false,
        "categories": ["SN-mi"]
      },
      {
        "title": "SkoHub",
        "source": "https://github.com/hbz/skohub-pubsub",
        "protocols": "ActivityPub",
        "site": "https://skohub.io",
        "logo": "",
        "servers": "",
        "description": "SkoHub creates a publication / subscription infrastructure for Open Educational Resources. It allows to follow specific subjects and to be notified when new content about that subject is published.",
        "codeLanguage": "JavaScript",
        "techStack": "",
        "license": "Apache-2.0",
        "FediAccount": "@skohub@openbiblio.social",
        "apClass": true,
        "zotClass": false,
        "diasporaClass": false,
        "OStatusClass": false,
        "categories": ["OpenData"]
      },
      {
        "title": "CPub",
        "source": "https://gitlab.com/openengiadina/cpub",
        "protocols": "ActivityPub",
        "site": "",
        "logo": "",
        "servers": "",
        "description": "General ActivityPub server built upon Semantic Web ideas. Implements a Linked Data Platform (LDP), uses RDF Turtle as serialization format.",
        "codeLanguage": "Elixir",
        "techStack": "",
        "license": "AGPL-3.0",
        "FediAccount": "",
        "apClass": true,
        "zotClass": false,
        "diasporaClass": false,
        "OStatusClass": false,
        "categories": ["OpenData"]
      },
      {
        "title": "SemApps",
        "source": "https://github.com/assemblee-virtuelle/semapps",
        "protocols": "ActivityPub",
        "site": "http://semapps.org",
        "logo": "",
        "servers": "",
        "description": "A collaborative, generic knowledge management system. Aims to ease data storage and filtering.",
        "codeLanguage": "JavaScript",
        "techStack": "",
        "license": "Apache-2.0",
        "FediAccount": "",
        "apClass": true,
        "zotClass": false,
        "diasporaClass": false,
        "OStatusClass": false,
        "categories": ["OpenData"]
      },
      {
        "title": "LubarGW2",
        "source": "https://git.lubar.me/ben/guild-website",
        "protocols": "ActivityPub",
        "site": "",
        "logo": "",
        "servers": "https://the-federation.info/lubargw2",
        "description": "Federating guild website using GuildWars2 API.",
        "codeLanguage": "Go",
        "techStack": "",
        "license": "-",
        "FediAccount": "@ben@mastodon.lubar.me",
        "apClass": true,
        "zotClass": false,
        "diasporaClass": false,
        "OStatusClass": false,
        "categories": ["Games"]
      },
      {
        "title": "Learn Awesome",
        "source": "https://github.com/learn-awesome/learn",
        "protocols": "ActivityPub",
        "site": "https://learnawesome.org",
        "logo": "",
        "servers": "",
        "description": "Open-source equivalent review aggregation site. Think GoodReads, but generalized to all learning resources organized by topics, formats and difficulty. Optimal learning paths for any topic.",
        "codeLanguage": "Ruby",
        "techStack": "Rails, PostgreSQL, Bootstrap, Stream Dashboard UI Kit",
        "license": "AGPL-3.0",
        "FediAccount": "",
        "apClass": true,
        "zotClass": false,
        "diasporaClass": false,
        "OStatusClass": false,
        "categories": ["Reviews"]
      },
      {
        "title": "Bonfire",
        "source": "https://github.com/bonfire-networks",
        "protocols": "ActivityPub",
        "site": "https://bonfirenetworks.org",
        "logo": "/img/misc/bonfire.png",
        "servers": "",
        "description": "Your plug & play federated social network. Based on CommonsPub, runs on RaspberryPi devices. Still in beta.",
        "codeLanguage": "Elixir",
        "techStack": "",
        "license": "AGPL-3.0",
        "FediAccount": "@bonfire@indieweb.social",
        "apClass": true,
        "zotClass": false,
        "diasporaClass": false,
        "OStatusClass": false,
        "categories": ["SN-mi", "SN-ma"]
      },
      {
        "title": "Immers Space",
        "source": "https://github.com/immers-space/immers",
        "protocols": "ActivityPub",
        "site": "",
        "logo": "",
        "servers": "",
        "description": "A decentralized virtual reality metaverse platform powered by Mozilla Hubs and ActivityPub-Express.",
        "codeLanguage": "JavaScript",
        "techStack": "",
        "license": "AGPL-3.0",
        "FediAccount": "immersspace@gup.pe",
        "apClass": true,
        "zotClass": false,
        "diasporaClass": false,
        "OStatusClass": false,
        "categories": ["Other"]
      },
      {
        "title": "Lumen-AP-server",
        "source": "https://notabug.org/tinyrabbit/lumen-ap-server",
        "protocols": "ActivityPub",
        "site": "",
        "logo": "",
        "servers": "",
        "description": "ActivityPub server using Lumen framework.",
        "codeLanguage": "PHP",
        "techStack": "Lumen",
        "license": "MIT",
        "FediAccount": "@tinyrabbit@floss.social",
        "apClass": true,
        "zotClass": false,
        "diasporaClass": false,
        "OStatusClass": false,
        "categories": ["SN-mi"]
      },
      {
        "title": "Spritely",
        "source": "https://gitlab.com/spritely",
        "protocols": "ActivityPub",
        "site": "https://spritely.institute",
        "logo": "",
        "servers": "",
        "description": "A distributed social network by ActivityPub specification co-author Christopher Lemmer Webber.",
        "codeLanguage": "Racket",
        "techStack": "",
        "license": "Apache-2",
        "FediAccount": "@spritelyproject@octodon.social",
        "apClass": true,
        "zotClass": false,
        "diasporaClass": false,
        "OStatusClass": false,
        "categories": ["SN-ma"]
      },
      {
        "title": "Kepi",
        "source": "https://gitlab.com/marnanel/chapeau",
        "protocols": "ActivityPub",
        "site": "",
        "logo": "",
        "servers": "",
        "description": "A Django-based microblogging server, written in Python, which supports the Mastodon protocol.",
        "codeLanguage": "Python",
        "techStack": "",
        "license": "GPL-2.0",
        "FediAccount": "@marnanel@queer.party",
        "apClass": true,
        "zotClass": false,
        "diasporaClass": false,
        "OStatusClass": false,
        "categories": ["SN-mi"]
      },
      {
        "title": "ForgeFriends",
        "source": "https://lab.forgefriends.org/forgefriends/forgefriends",
        "protocols": "ActivityPub",
        "site": "https://forgefriends.org",
        "logo": "/img/misc/forgefriends.svg",
        "servers": "",
        "description": "An online service to federate forges.",
        "codeLanguage": "Go",
        "techStack": "",
        "license": "MIT",
        "FediAccount": "forgefriends@mastodon.online",
        "apClass": true,
        "zotClass": false,
        "diasporaClass": false,
        "OStatusClass": false,
        "categories": ["Develop"]
      },
      {
        "title": "Flocking Bird",
        "source": "https://github.com/flockingbird/roost",
        "protocols": "ActivityPub",
        "site": "https://search.flockingbird.social",
        "logo": "",
        "servers": "",
        "description": "Network for professionals. A LinkedIn alternative.",
        "codeLanguage": "",
        "techStack": "",
        "license": "-",
        "FediAccount": "@flockingbird@fosstodon.org",
        "apClass": true,
        "zotClass": false,
        "diasporaClass": false,
        "OStatusClass": false,
        "categories": ["SN-ma"]
      },
      {
        "title": "Tranquility",
        "source": "https://github.com/aumetra/tranquility",
        "protocols": "ActivityPub",
        "site": "",
        "logo": "",
        "servers": "",
        "description": "Small ActivityPub server written in Rust.",
        "codeLanguage": "Rust",
        "techStack": "",
        "license": "MIT",
        "FediAccount": "",
        "apClass": true,
        "zotClass": false,
        "diasporaClass": false,
        "OStatusClass": false,
        "categories": ["SN-mi"]
      },
      {
        "title": "Mastotool",
        "source": "https://github.com/muesli/mastotool",
        "protocols": "ActivityPub",
        "site": "",
        "logo": "",
        "servers": "",
        "description": "A collection of tools to work with your Mastodon account; displays account statistics and lets you search your toots.",
        "codeLanguage": "Go",
        "techStack": "",
        "license": "MIT",
        "FediAccount": "",
        "apClass": true,
        "zotClass": false,
        "diasporaClass": false,
        "OStatusClass": false,
        "categories": ["Extention"]
      },
      {
        "title": "GoToSocial",
        "source": "https://github.com/superseriousbusiness/gotosocial",
        "protocols": "ActivityPub",
        "site": "",
        "logo": "",
        "servers": "",
        "description": "A headless Mastodon-compatible Fediverse server project, written in Golang.",
        "codeLanguage": "Go",
        "techStack": "",
        "license": "AGPL-3.0",
        "FediAccount": "@gotosocial@gts.superseriousbusiness.org",
        "apClass": true,
        "zotClass": false,
        "diasporaClass": false,
        "OStatusClass": false,
        "categories": ["SN-mi"]
      },
      {
        "title": "CastoPod Host",
        "source": "https://code.podlibre.org/podlibre/castopod",
        "protocols": "ActivityPub",
        "site": "https://podlibre.org/tag/castopod-host",
        "logo": "/img/misc/castopod.svg",
        "servers": "",
        "description": "An open-source hosting platform made for podcasters who want to engage and interact with their audience.",
        "codeLanguage": "PHP",
        "techStack": "",
        "license": "AGPL-3.0",
        "FediAccount": "@castopod@podlibre.social",
        "apClass": true,
        "zotClass": false,
        "diasporaClass": false,
        "OStatusClass": false,
        "categories": ["Media"]
      },
      {
        "title": "Corteza",
        "source": "https://github.com/cortezaproject/corteza-server",
        "protocols": "ActivityPub",
        "site": "https://cortezaproject.org",
        "logo": "",
        "servers": "",
        "description": "Digital Work Platform for Humanity. An open-source, low-code federated platform for building cloud-based business apps with CRM capabilities.",
        "codeLanguage": "Go",
        "techStack": "",
        "license": "Apache-2.0",
        "FediAccount": "",
        "apClass": true,
        "zotClass": false,
        "diasporaClass": false,
        "OStatusClass": false,
        "categories": ["Other"]
      },
      {
        "title": "FChannel",
        "source": "https://github.com/FChannel0/FChannel-Server",
        "protocols": "ActivityPub",
        "site": "",
        "logo": "",
        "servers": "",
        "description": "A libre, self-hostable, federated, imageboard platform that utilizes ActivityPub.",
        "codeLanguage": "Go",
        "techStack": "",
        "license": "AGPL-3.0",
        "FediAccount": "",
        "apClass": true,
        "zotClass": false,
        "diasporaClass": false,
        "OStatusClass": false,
        "categories": ["Forums", "Media"]
      },
      {
        "title": "Catcast D",
        "source": "https://github.com/mrcatman/catcast-d",
        "protocols": "ActivityPub",
        "site": "",
        "logo": "",
        "servers": "",
        "description": "A federated video live streaming platform.",
        "codeLanguage": "TypeScript",
        "techStack": "",
        "license": "-",
        "FediAccount": "@mrcatmann@mastodon.social",
        "apClass": true,
        "zotClass": false,
        "diasporaClass": false,
        "OStatusClass": false,
        "categories": ["Media"]
      },
      {
        "title": "Lectrn",
        "source": "https://github.com/lectrn/lectrn",
        "protocols": "ActivityPub",
        "site": "https://lectrn.com",
        "logo": "",
        "servers": "",
        "description": "A social network for humans that is free, decentralized, open, and easy to use.",
        "codeLanguage": "JavaScript",
        "techStack": "Node.js, PostgreSQL",
        "license": "AGPL-3.0",
        "FediAccount": "",
        "apClass": true,
        "zotClass": false,
        "diasporaClass": false,
        "OStatusClass": false,
        "categories": ["SN-mi"]
      },
      {
        "title": "FitTrackee",
        "source": "https://github.com/SamR1/FitTrackee",
        "protocols": "ActivityPub",
        "site": "",
        "logo": "",
        "servers": "",
        "description": "A simple self-hosted workout / activity tracker.",
        "codeLanguage": "Python",
        "techStack": "",
        "license": "AGPL-3.0",
        "FediAccount": "@SamR1@mastodon.social",
        "apClass": true,
        "zotClass": false,
        "diasporaClass": false,
        "OStatusClass": false,
        "categories": ["Other"]
      },
      {
        "title": "Dharma",
        "source": "https://github.com/cjslep/dharma",
        "protocols": "ActivityPub",
        "site": "",
        "logo": "",
        "servers": "",
        "description": "A federated community-building platform for Eve Online corporations.",
        "codeLanguage": "Go",
        "techStack": "",
        "license": "AGPL-3.0",
        "FediAccount": "",
        "apClass": true,
        "zotClass": false,
        "diasporaClass": false,
        "OStatusClass": false,
        "categories": ["Games"]
      },
      {
        "title": "hvxahv",
        "source": "https://github.com/disism/hvxahv",
        "protocols": "ActivityPub",
        "site": "",
        "logo": "",
        "servers": "",
        "description": "A multifunctional decentralized social network implementation based on ActivityPub, ipfs and Matrix protocols.",
        "codeLanguage": "Go",
        "techStack": "",
        "license": "MIT",
        "FediAccount": "",
        "apClass": true,
        "zotClass": false,
        "diasporaClass": false,
        "OStatusClass": false,
        "categories": ["SN-ma"]
      },
      {
        "title": "Ocelot Social",
        "source": "https://github.com/Ocelot-Social-Community/Ocelot-Social",
        "protocols": "ActivityPub",
        "site": "",
        "logo": "/img/misc/ocelot.svg",
        "servers": "",
        "description": "Social, action and knowledge network for active citizenship.",
        "codeLanguage": "JavaScript",
        "techStack": "Node.js, Vue, Nuxt",
        "license": "MIT",
        "FediAccount": "",
        "apClass": true,
        "zotClass": false,
        "diasporaClass": false,
        "OStatusClass": false,
        "categories": ["SN-ma"]
      },
      {
        "title": "Mastodon Group Bot",
        "source": "https://github.com/drequivalent/mastodon-bot-autoresponder",
        "protocols": "ActivityPub",
        "site": "",
        "logo": "",
        "servers": "",
        "description": "A bot that implements group functionality in Mastodon.",
        "codeLanguage": "Python",
        "techStack": "",
        "license": "MIT",
        "FediAccount": "@drq@mastodon.ml",
        "apClass": true,
        "zotClass": false,
        "diasporaClass": false,
        "OStatusClass": false,
        "categories": ["Extention"]
      },
      {
        "title": "bopwiki",
        "source": "https://codeberg.org/Valenoern/bopwiki",
        "protocols": "ActivityPub",
        "site": "",
        "logo": "",
        "servers": "",
        "description": "A simple 'microwiki' implementation, fairly similar to a Zettelkasten system.",
        "codeLanguage": "Lisp",
        "techStack": "",
        "license": "GPL-3.0",
        "FediAccount": "@Valenoern@floss.social",
        "apClass": true,
        "zotClass": false,
        "diasporaClass": false,
        "OStatusClass": false,
        "categories": ["Other"]
      },
      {
        "title": "Inventaire",
        "source": "https://github.com/inventaire/inventaire",
        "protocols": "ActivityPub",
        "site": "https://inventaire.io/welcome",
        "logo": "",
        "servers": "",
        "description": "A free open platform for cataloguing and sharing physical books from personal collections and independent libraries.",
        "codeLanguage": "JavaScript",
        "techStack": "",
        "license": "AGPL-3.0",
        "FediAccount": "@inventaire@mamot.fr",
        "apClass": true,
        "zotClass": false,
        "diasporaClass": false,
        "OStatusClass": false,
        "categories": ["Reviews"]
      },
      {
        "title": "Wolfgame",
        "source": "https://gitlab.com/stemid/wolfgame",
        "protocols": "ActivityPub",
        "site": "",
        "logo": "",
        "servers": "",
        "description": "Wolfgame is a lot like Mafia. Once started the game simulates day/night cycle and allows players to vote for who might be a werewolf during the day.",
        "codeLanguage": "Python",
        "techStack": "",
        "license": "MIT",
        "FediAccount": "@stemid@mastodon.se",
        "apClass": true,
        "zotClass": false,
        "diasporaClass": false,
        "OStatusClass": false,
        "categories": ["Games"]
      },
      {
        "title": "Librecast LIVE",
        "source": "https://github.com/librestack/librecast-live",
        "protocols": "ActivityPub",
        "site": "https://librecast.net/live.html",
        "logo": "",
        "servers": "",
        "description": "Live streaming video platform with multicast.",
        "codeLanguage": "JavaScript",
        "techStack": "",
        "license": "GPL-2.0 / GPL-3.0",
        "FediAccount": "@onepict@chaos.social",
        "apClass": true,
        "zotClass": false,
        "diasporaClass": false,
        "OStatusClass": false,
        "categories": ["Media"]
      },
      {
        "title": "Minipub",
        "source": "https://github.com/skymethod/minipub",
        "protocols": "ActivityPub",
        "site": "https://minipub.dev",
        "logo": "/img/misc/minipub.svg",
        "servers": "",
        "description": "Minimal ActivityPub server for posting federated podcast comments.",
        "codeLanguage": "TypeScript",
        "techStack": "",
        "license": "MIT",
        "FediAccount": "",
        "apClass": true,
        "zotClass": false,
        "diasporaClass": false,
        "OStatusClass": false,
        "categories": ["Media"]
      },
      {
        "title": "Swanye",
        "source": "https://codeberg.org/WammKD/Swanye",
        "protocols": "ActivityPub",
        "site": "",
        "logo": "",
        "servers": "",
        "description": "A tumblelog in the style of Tumblr.",
        "codeLanguage": "Elixir",
        "techStack": "",
        "license": "AGPL-3.0",
        "FediAccount": "@Swanye@fosstodon.org",
        "apClass": true,
        "zotClass": false,
        "diasporaClass": false,
        "OStatusClass": false,
        "categories": ["SN-mi"]
      },
      {
        "title": "Yuforium",
        "source": "https://github.com/yuforium",
        "protocols": "ActivityPub",
        "site": "",
        "logo": "",
        "servers": "",
        "description": "A community platform that focuses on federated communities so they are no longer constrained to a single entity.",
        "codeLanguage": "TypeScript",
        "techStack": "",
        "license": "GPL-3.0",
        "FediAccount": "@cpmoser@mastodon.social",
        "apClass": true,
        "zotClass": false,
        "diasporaClass": false,
        "OStatusClass": false,
        "categories": ["Forums"]
      },
      {
        "title": "FediPlan",
        "source": "https://framagit.org/tom79/fediplan",
        "protocols": "ActivityPub",
        "site": "https://fedilab.app/page/fediplan/",
        "logo": "",
        "servers": "",
        "description": "A way to safely schedule messages with Mastodon and Pleroma.",
        "codeLanguage": "PHP",
        "techStack": "",
        "license": "GPL-3.0",
        "FediAccount": "@apps@toot.fedilab.app",
        "apClass": true,
        "zotClass": false,
        "diasporaClass": false,
        "OStatusClass": false,
        "categories": ["Extention"]
      },
      {
        "title": "ForgeFlux",
        "source": "https://github.com/forgeflux-org/interface",
        "protocols": "ActivityPub",
        "site": "https://forgeflux.org/",
        "logo": "",
        "servers": "",
        "description": "Forge federation will implement ForgeFed external, using the forge's HTTP APIs. Federation for Gitea, SourceHut, GitLab and GitHub will be implemented",
        "codeLanguage": "Python",
        "techStack": "",
        "license": "AGPL-3.0",
        "FediAccount": "@forgeflux@gts.batsense.net",
        "apClass": true,
        "zotClass": false,
        "diasporaClass": false,
        "OStatusClass": false,
        "categories": ["Develop"]
      },
      {
        "title": "Vervis",
        "source": "https://vervis.peers.community/repos/WvWbo/source",
        "protocols": "ActivityPub",
        "site": "",
        "logo": "",
        "servers": "",
        "description": "Decentralized project hosting and management platform. Reference implementation for ForgeFed   protocol extension.",
        "codeLanguage": "Haskell",
        "techStack": "",
        "license": "AGPL-3.0",
        "FediAccount": "@fr33domlover@todon.nl",
        "apClass": true,
        "zotClass": false,
        "diasporaClass": false,
        "OStatusClass": false,
        "categories": ["Develop"]
      },
      {
        "title": "FoundKey",
        "source": "https://akkoma.dev/FoundKeyGang/FoundKey",
        "protocols": "ActivityPub",
        "site": "",
        "logo": "",
        "servers": "https://the-federation.info/foundkey",
        "description": "A fork of Misskey with various bug fixes and improvements.",
        "codeLanguage": "TypeScript",
        "techStack": "Node.js, Vue",
        "license": "AGPL-3.0",
        "FediAccount": "",
        "apClass": true,
        "zotClass": false,
        "diasporaClass": false,
        "OStatusClass": false,
        "categories": ["SN-mi"]
      },
      {
        "title": "Calckey",
        "source": "https://codeberg.org/thatonecalculator/calckey",
        "protocols": "ActivityPub",
        "site": "",
        "logo": "",
        "servers": "https://the-federation.info/calckey",
        "description": "An actively developed, community-driven fork of Misskey with many quality of life improvements for users and admins alike.",
        "codeLanguage": "TypeScript",
        "techStack": "Node.js, Vue",
        "license": "AGPL-3.0",
        "FediAccount": "",
        "apClass": true,
        "zotClass": false,
        "diasporaClass": false,
        "OStatusClass": false,
        "categories": ["SN-mi"]
      },
      {
        "title": "Meiskey",
        "source": "ttps://github.com/mei23/misskey",
        "protocols": "ActivityPub",
        "site": "",
        "logo": "",
        "servers": "",
        "description": "An actively developed fork of Misskey v11.",
        "codeLanguage": "TypeScript",
        "techStack": "Node.js, Vue",
        "license": "AGPL-3.0",
        "FediAccount": "",
        "apClass": true,
        "zotClass": false,
        "diasporaClass": false,
        "OStatusClass": false,
        "categories": ["SN-mi"]
      },
      {
        "title": "Kbin",
        "source": "https://github.com/ernestwisniewski/kbin",
        "protocols": "ActivityPub",
        "site": "https://kbin.pub",
        "logo": "/img/misc/kbin.png",
        "servers": "https://the-federation.info/kbin",
        "description": "Link aggregator and microblogging platform for the fediverse.",
        "codeLanguage": "PHP",
        "techStack": "Symfony, Stimulus",
        "license": "AGPL-3.0",
        "FediAccount": "",
        "apClass": true,
        "zotClass": false,
        "diasporaClass": false,
        "OStatusClass": false,
        "categories": ["Forum", "Links", "SN-mi"]
      },
      {
        "title": "diaspora*",
        "source": "https://github.com/diaspora/diaspora",
        "protocols": "diaspora",
        "site": "https://diasporafoundation.org",
        "logo": "/img/misc/diaspora.svg",
        "servers": "https://the-federation.info/diaspora",
        "description": "Online world where you are in control. Has 'aspects' similar to Google+ 'circles', and all the basic features of a macroblogging network.",
        "codeLanguage": "Ruby",
        "techStack": "",
        "license": "AGPL-3.0",
        "FediAccount": "",
        "apClass": false,
        "zotClass": false,
        "diasporaClass": true,
        "OStatusClass": false,
        "categories": ["SN-ma"]
      },
      {
        "title": "Friendica",
        "source": "https://github.com/friendica/friendica",
        "protocols": "diaspora, ActivityPub, OStatus",
        "site": "https://friendi.ca",
        "logo": "/img/misc/friendica.svg",
        "servers": "https://the-federation.info/friendica",
        "description": "Personal network that helps to keep in contact with friends. Interface and functionality include common features of a mainstream social network.",
        "codeLanguage": "PHP",
        "techStack": "",
        "license": "AGPL-3.0",
        "FediAccount": "",
        "apClass": true,
        "zotClass": false,
        "diasporaClass": true,
        "OStatusClass": true,
        "categories": ["SN-ma", "Ev-Meet"]
      },
      {
        "title": "Funkwhale",
        "source": "https://dev.funkwhale.audio/funkwhale/funkwhale",
        "protocols": "ActivityPub",
        "site": "https://funkwhale.audio",
        "logo": "/img/misc/funkwhale.svg",
        "servers": "https://the-federation.info/funkwhale",
        "description": "Community-driven audio server and player that lets you listen and share music within a decentralized, open network. A place for socializing around music and discovering new content.",
        "codeLanguage": "Python",
        "techStack": "",
        "license": "AGPL-3.0",
        "FediAccount": "@agateblue@mastodon.technology",
        "apClass": true,
        "zotClass": false,
        "diasporaClass": false,
        "OStatusClass": false,
        "categories": ["Media"]
      },
      {
        "title": "GNU Social",
        "source": "https://notabug.org/diogo/gnu-social",
        "protocols": "ActivityPub, OStatus",
        "site": "https://gnusocial.network",
        "logo": "/img/misc/gnusocial.svg",
        "servers": "https://the-federation.info/gnusocial",
        "description": "Microblogging server with multiple plugins.",
        "codeLanguage": "PHP",
        "techStack": "",
        "license": "AGPL-3.0",
        "FediAccount": "@diogo@social.hackersatporto.com",
        "apClass": false,
        "zotClass": false,
        "diasporaClass": false,
        "OStatusClass": true,
        "categories": ["SN-mi"]
      },
      {
        "title": "Hubzilla",
        "source": "https://framagit.org/hubzilla/core",
        "protocols": "Zot, diaspora, ActivityPub",
        "site": "https://hubzilla.org",
        "logo": "/img/misc/hubzilla.svg",
        "servers": "https://the-federation.info/hubzilla",
        "description": "Multi-purpose network for power users. Includes a significant number of features and granular settings.",
        "codeLanguage": "PHP",
        "techStack": "",
        "license": "MIT",
        "FediAccount": "",
        "apClass": true,
        "zotClass": true,
        "diasporaClass": true,
        "OStatusClass": true,
        "categories": ["SN-ma", "Files", "Ev-Meet"]
      },
      {
        "title": "Misskey",
        "source": "https://github.com/misskey-dev/misskey",
        "protocols": "ActivityPub",
        "site": "https://join.misskey.page/en",
        "logo": "/img/misc/misskey.png",
        "servers": "https://the-federation.info/misskey",
        "description": "Sophisticated microblogging with personality. Provides many additional features like calendar, emoji reactions, polls, games, and many other widgets.",
        "codeLanguage": "TypeScript",
        "techStack": "Node.js, Vue",
        "license": "AGPL-3.0",
        "FediAccount": "@syuilo@misskey.io",
        "apClass": true,
        "zotClass": false,
        "diasporaClass": false,
        "OStatusClass": false,
        "categories": ["SN-mi"]
      },
      {
        "title": "PeerTube",
        "source": "https://github.com/Chocobozzz/PeerTube",
        "protocols": "ActivityPub",
        "site": "https://joinpeertube.org/en",
        "logo": "/img/misc/peertube.svg",
        "servers": "https://the-federation.info/peertube",
        "description": "Decentralized video platform, a network of interconnected video hosting providers. Video broadcasting may be peer-to-peer.",
        "codeLanguage": "TypeScript",
        "techStack": "Node.js",
        "license": "AGPL-3.0",
        "FediAccount": "@peertube@framapiaf.org",
        "apClass": true,
        "zotClass": false,
        "diasporaClass": false,
        "OStatusClass": false,
        "categories": ["Media"]
      },
      {
        "title": "Pixelfed",
        "source": "https://github.com/dansup/pixelfed",
        "protocols": "ActivityPub",
        "site": "https://pixelfed.org",
        "logo": "/img/misc/pixelfed.svg",
        "servers": "https://the-federation.info/pixelfed",
        "description": "An image sharing platform with modern user interface.",
        "codeLanguage": "PHP",
        "techStack": "",
        "license": "AGPL-3.0",
        "FediAccount": "@pixelfed@mastodon.social",
        "apClass": true,
        "zotClass": false,
        "diasporaClass": false,
        "OStatusClass": false,
        "categories": ["Media"]
      },
      {
        "title": "Pleroma",
        "source": "https://git.pleroma.social/pleroma",
        "protocols": "ActivityPub",
        "site": "https://pleroma.social",
        "logo": "/img/misc/pleroma.svg",
        "servers": "https://the-federation.info/pleroma",
        "description": "Microblogging platform with excellent performance and low resource consumption. Has many features: polls, custom themes, markdown support.",
        "codeLanguage": "Elixir",
        "techStack": "Vue",
        "license": "AGPL-3.0",
        "FediAccount": "@lain@pleroma.soykaf.com",
        "apClass": true,
        "zotClass": false,
        "diasporaClass": false,
        "OStatusClass": false,
        "categories": ["SN-mi"]
      },
      {
        "title": "Mastodon",
        "source": "https://github.com/mastodon/mastodon",
        "protocols": "ActivityPub",
        "site": "https://joinmastodon.org",
        "logo": "/img/misc/mastodon.svg",
        "servers": "https://the-federation.info/mastodon",
        "description": "Epic microblogging network with many features and multiple interface layouts to choose from.",
        "codeLanguage": "Ruby",
        "techStack": "React, SASS, Node.js",
        "license": "AGPL-3.0",
        "FediAccount": "@gargron@mastodon.social",
        "apClass": true,
        "zotClass": false,
        "diasporaClass": false,
        "OStatusClass": false,
        "categories": ["SN-mi"]
      }
    ]
}
